{
  "fecha_suceso": "2019-12-10 15:00",
  "hora": "15:00",
  "delito_id": 1,
  "delito_detalle_id": 7,
  "titulo": "Test",
  "fuente": "test",
  "estado": "7",
  "municipio_id": 3,
  "parroquia_id": 737,
  "nombre_victima": "Sin identificar",
  "fecha_creado": "2019-12-11 15:00:00",
}
